{
  "file_generated_by": "FlutterFire CLI",
  "purpose": "FirebaseAppID & ProjectID for this Firebase app in this directory",
  "GOOGLE_APP_ID": "1:783778139372:ios:8193a4585ade8fb63469c9",
  "FIREBASE_PROJECT_ID": "chatapp-9470e",
  "GCM_SENDER_ID": "783778139372"
}